<svg width="24" height="24" viewBox="0 0 24 24" fill="none" xmlns="http://www.w3.org/2000/svg">
<path d="M10.5525 2.67526C10.9579 2.33459 11.4705 2.14783 12 2.14783C12.5295 2.14783 13.0421 2.33459 13.4475 2.67526L20.1975 8.35126C20.4488 8.56239 20.6508 8.82593 20.7894 9.1234C20.928 9.42088 20.9999 9.74507 21 10.0733V19.5008C21 19.8986 20.842 20.2801 20.5607 20.5614C20.2794 20.8427 19.8978 21.0008 19.5 21.0008H15.375C14.9772 21.0008 14.5956 20.8427 14.3143 20.5614C14.033 20.2801 13.875 19.8986 13.875 19.5008V14.2508H10.125V19.5008C10.125 19.8986 9.96696 20.2801 9.68566 20.5614C9.40436 20.8427 9.02282 21.0008 8.625 21.0008H4.5C4.10218 21.0008 3.72064 20.8427 3.43934 20.5614C3.15804 20.2801 3 19.8986 3 19.5008V10.0725C3.00008 9.74432 3.07196 9.42013 3.21059 9.12266C3.34922 8.82519 3.55124 8.56164 3.8025 8.35051L10.5525 2.67451V2.67526Z" fill="white"/>
</svg>
