<svg width="48" height="48" viewBox="0 0 48 48" fill="none" xmlns="http://www.w3.org/2000/svg">
<path d="M12 15C12 14.172 11.328 13.5 10.5 13.5H1.5C0.672 13.5 0 14.172 0 15C0 15.828 0.672 16.5 1.5 16.5H10.5C11.328 16.5 12 15.828 12 15Z" fill="#FFC107"/>
<path d="M10.5 19.5H4.5C3.672 19.5 3 20.172 3 21C3 21.828 3.672 22.5 4.5 22.5H10.5C11.328 22.5 12 21.828 12 21C12 20.172 11.328 19.5 10.5 19.5Z" fill="#FFC107"/>
<path d="M10.5 25.5H7.5C6.672 25.5 6 26.172 6 27C6 27.828 6.672 28.5 7.5 28.5H10.5C11.328 28.5 12 27.828 12 27C12 26.172 11.328 25.5 10.5 25.5Z" fill="#FFC107"/>
<path d="M47.787 24.729L43.287 17.229C43.017 16.776 42.528 16.5 42 16.5H31.5C30.672 16.5 30 17.172 30 18V33C30 33.828 30.672 34.5 31.5 34.5H46.5C47.328 34.5 48 33.828 48 33V25.5C48 25.227 47.928 24.96 47.787 24.729Z" fill="#F44336"/>
<path d="M36 19.5H41.151L44.751 25.5H36V19.5Z" fill="#FAFAFA"/>
<path d="M31.5 10.5H10.5C9.672 10.5 9 11.172 9 12V33C9 33.828 9.672 34.5 10.5 34.5H33V12C33 11.172 32.328 10.5 31.5 10.5Z" fill="#FFC107"/>
<path d="M40.5 36C42.1569 36 43.5 34.6569 43.5 33C43.5 31.3431 42.1569 30 40.5 30C38.8431 30 37.5 31.3431 37.5 33C37.5 34.6569 38.8431 36 40.5 36Z" fill="#FAFAFA"/>
<path d="M40.5 37.5C38.019 37.5 36 35.481 36 33C36 30.519 38.019 28.5 40.5 28.5C42.981 28.5 45 30.519 45 33C45 35.481 42.981 37.5 40.5 37.5ZM40.5 31.5C39.675 31.5 39 32.175 39 33C39 33.825 39.675 34.5 40.5 34.5C41.325 34.5 42 33.825 42 33C42 32.175 41.325 31.5 40.5 31.5Z" fill="#455A64"/>
<path d="M33 34.5H10.5C9.672 34.5 9 33.828 9 33V28.5H33V34.5Z" fill="#F44336"/>
<path d="M19.5 36C21.1569 36 22.5 34.6569 22.5 33C22.5 31.3431 21.1569 30 19.5 30C17.8431 30 16.5 31.3431 16.5 33C16.5 34.6569 17.8431 36 19.5 36Z" fill="#FAFAFA"/>
<path d="M19.5 37.5C17.019 37.5 15 35.481 15 33C15 30.519 17.019 28.5 19.5 28.5C21.981 28.5 24 30.519 24 33C24 35.481 21.981 37.5 19.5 37.5ZM19.5 31.5C18.672 31.5 18 32.175 18 33C18 33.825 18.672 34.5 19.5 34.5C20.328 34.5 21 33.825 21 33C21 32.175 20.328 31.5 19.5 31.5Z" fill="#455A64"/>
</svg>
