<svg width="20" height="20" viewBox="0 0 20 20" fill="none" xmlns="http://www.w3.org/2000/svg">
<g clip-path="url(#clip0)">
<path d="M0.0853125 4.39844C0.0303516 4.49363 0 4.60305 0 4.7168V11.0423C0 11.2698 0.121367 11.48 0.318359 11.5937L5.79641 14.7564C5.89492 14.8133 6.00484 14.8418 6.11476 14.8418L6.96859 7.3866L0.0853125 4.39844Z" fill="#B9E4EF"/>
<path d="M6.11475 6.57652V14.8418C6.22467 14.8418 6.33459 14.8133 6.43311 14.7564L9.52014 12.9741L12.2295 8.52699V4.7168C12.2295 4.60305 12.1992 4.49363 12.1442 4.39844L6.11475 6.57652Z" fill="#93D8E4"/>
<path d="M12.1441 4.39854C12.0891 4.30335 12.0095 4.22237 11.911 4.1655L6.43298 1.00276C6.23599 0.889053 5.99329 0.889053 5.7963 1.00276L0.318252 4.1655C0.219736 4.22237 0.140166 4.30335 0.0852051 4.39854L6.11466 7.87964L12.1441 4.39854Z" fill="#DAF1F4"/>
<path d="M9.59311 10.1338C9.546 10.2154 9.52002 10.3091 9.52002 10.4066V15.8271C9.52002 16.0221 9.624 16.2022 9.79283 16.2996L14.4872 19.0099C14.5716 19.0586 14.6658 19.083 14.76 19.083L15.2097 12.6671L9.59311 10.1338Z" fill="#B9E4EF"/>
<path d="M10.8897 5.12265C10.8064 4.97827 10.6218 4.92882 10.4775 5.01218L6.11465 7.53104L1.75184 5.01222C1.60746 4.92882 1.42289 4.97831 1.33957 5.12269C1.25621 5.26706 1.30566 5.45163 1.45004 5.53495L5.81281 8.05382V13.0916C5.81281 13.2582 5.94793 13.3933 6.11461 13.3933C6.28129 13.3933 6.41641 13.2582 6.41641 13.0916V8.05382L10.7792 5.53495C10.9236 5.45159 10.973 5.26702 10.8897 5.12265Z" fill="#ECF9F9"/>
<path d="M2.27455 4.49968C2.17025 4.49968 2.06881 4.44554 2.01291 4.3487C1.92955 4.20433 1.979 4.01976 2.12338 3.93644L3.91029 2.90476C4.05467 2.8214 4.23924 2.87085 4.32256 3.01522C4.40592 3.1596 4.35646 3.34417 4.21209 3.42749L2.42518 4.45917C2.37768 4.48663 2.32576 4.49968 2.27455 4.49968Z" fill="#ECF9F9"/>
<path d="M14.76 12.7684V19.083C14.8542 19.083 14.9484 19.0586 15.0328 19.0099L19.7272 16.2996C19.896 16.2022 20 16.0221 20 15.8271V10.4066C20 10.3091 19.974 10.2154 19.9269 10.1338L14.76 12.7684Z" fill="#93D8E4"/>
<path d="M19.927 10.1335C19.8799 10.0519 19.8117 9.98251 19.7272 9.9338L15.0329 7.22349C14.8641 7.12603 14.6561 7.12603 14.4873 7.22349L9.79295 9.93376C9.70854 9.98247 9.64033 10.0519 9.59326 10.1334L14.7601 13.1165L19.927 10.1335Z" fill="#DAF1F4"/>
<path d="M13.0346 9.52601C12.9303 9.52601 12.8288 9.47187 12.7729 9.37503C12.6896 9.23065 12.739 9.04608 12.8834 8.96276L14.6094 7.96628C14.7536 7.88292 14.9383 7.93237 15.0216 8.07675C15.105 8.22112 15.0555 8.40569 14.9112 8.48901L13.1852 9.4855C13.1377 9.51296 13.0858 9.52601 13.0346 9.52601Z" fill="#ECF9F9"/>
<path d="M18.8894 10.7325C18.8061 10.5881 18.6214 10.5387 18.4772 10.622L14.7601 12.7681L11.0431 10.622C10.8987 10.5387 10.7141 10.5881 10.6308 10.7325C10.5475 10.8769 10.597 11.0615 10.7413 11.1448L14.4583 13.2908V17.5829C14.4583 17.7496 14.5934 17.8847 14.7601 17.8847C14.9268 17.8847 15.0619 17.7496 15.0619 17.5829V13.2908L18.779 11.1448C18.9234 11.0615 18.9728 10.8769 18.8894 10.7325Z" fill="#ECF9F9"/>
</g>
<defs>
<clipPath id="clip0">
<rect width="20" height="20" fill="white"/>
</clipPath>
</defs>
</svg>
